Results/M2PC/NormalOperation/ALL0001.CSV

Format,2.0E,
Memory Length,10000,Memory Length,10000,
IntpDistance,0,IntpDistance,0,
Trigger Address,4999,Trigger Address,4999,
Trigger Level,3.040E+01,Trigger Level,3.040E+01,
Source,CH1,Source,CH2,
Vertical Units,V,Vertical Units,A,
Vertical Units Div,0,Vertical Units Div,0,
Vertical Units Extend Div,15,Vertical Units Extend Div,35,
Label,Vl_R_Load,Label, ,
Probe Type,0,Probe Type,1,
Probe Ratio,1.000E+00,Probe Ratio,1.000E+01,
Vertical Scale,1.000E+01,Vertical Scale,2.000E+00,
Vertical Position,0.000E+00,Vertical Position,0.000E+00,
Horizontal Units,S,Horizontal Units,S,
Horizontal Scale,5.000E-02,Horizontal Scale,5.000E-02,
Horizontal Position,0.000E+00,Horizontal Position,0.000E+00,
Horizontal Mode,Main,Horizontal Mode,Main,
SincET Mode,Real Time,SincET Mode,Real Time,
Sampling Period,5.000E-05,Sampling Period,5.000E-05,
Horizontal Old Scale,5.000E-02,Horizontal Old Scale,5.000E-02,
Horizontal Old Position,0.000E+00,Horizontal Old Position,0.000E+00,
Firmware,V1.06,Firmware,V1.06,
Time,17-Jul-26 03:43:40,Time,17-Jul-26 03:43:40,
Mode,Detail,Mode,Detail,
Waveform Data,,Waveform Data,,
-2.500000e-01,32.400000,-2.500000e-01,2.160000,
-2.499500e-01,32.400000,-2.499500e-01,2.160000,
-2.499000e-01,32.400000,-2.499000e-01,2.160000,
-2.498500e-01,32.400000,-2.498500e-01,2.160000,
-2.498000e-01,32.400000,-2.498000e-01,2.160000,
-2.497500e-01,32.400000,-2.497500e-01,2.160000,
-2.497000e-01,32.400000,-2.497000e-01,2.160000,
-2.496500e-01,32.400000,-2.496500e-01,2.160000,
-2.496000e-01,32.400000,-2.496000e-01,2.160000,
-2.495500e-01,32.400000,-2.495500e-01,2.160000,
-2.495000e-01,32.400000,-2.495000e-01,2.160000,
-2.494500e-01,32.400000,-2.494500e-01,2.160000,
-2.494000e-01,32.400000,-2.494000e-01,2.160000,
-2.493500e-01,32.400000,-2.493500e-01,2.160000,
-2.493000e-01,32.400000,-2.493000e-01,2.160000,
-2.492500e-01,32.400000,-2.492500e-01,2.160000,
-2.492000e-01,32.400000,-2.492000e-01,2.160000,
-2.491500e-01,32.400000,-2.491500e-01,2.240000,
-2.491000e-01,32.400000,-2.491000e-01,2.160000,
-2.490500e-01,32.400000,-2.490500e-01,2.160000,
-2.490000e-01,32.400000,-2.490000e-01,2.160000,
-2.489500e-01,32.400000,-2.489500e-01,2.240000,
-2.489000e-01,32.400000,-2.489000e-01,2.160000,
-2.488500e-01,32.400000,-2.488500e-01,2.240000,
-2.488000e-01,32.400000,-2.488000e-01,2.160000,
-2.487500e-01,32.400000,-2.487500e-01,2.240000,
-2.487000e-01,32.000000,-2.487000e-01,2.160000,
-2.486500e-01,32.400000,-2.486500e-01,2.160000,
-2.486000e-01,32.400000,-2.486000e-01,2.160000,
-2.485500e-01,32.400000,-2.485500e-01,2.160000,
-2.485000e-01,32.400000,-2.485000e-01,2.160000,
-2.484500e-01,32.400000,-2.484500e-01,2.160000,
-2.484000e-01,32.400000,-2.484000e-01,2.160000,
-2.483500e-01,32.400000,-2.483500e-01,2.160000,
-2.483000e-01,32.400000,-2.483000e-01,2.160000,
-2.482500e-01,32.400000,-2.482500e-01,2.160000,
-2.482000e-01,32.800000,-2.482000e-01,2.160000,
-2.481500e-01,32.400000,-2.481500e-01,2.160000,
-2.481000e-01,32.800000,-2.481000e-01,2.240000,
-2.480500e-01,32.800000,-2.480500e-01,2.160000,
-2.480000e-01,32.400000,-2.480000e-01,2.160000,
-2.479500e-01,32.400000,-2.479500e-01,2.160000,
-2.479000e-01,32.400000,-2.479000e-01,2.160000,
-2.478500e-01,32.400000,-2.478500e-01,2.160000,
-2.478000e-01,32.400000,-2.478000e-01,2.160000,
-2.477500e-01,32.400000,-2.477500e-01,2.160000,
-2.477000e-01,32.400000,-2.477000e-01,2.240000,
-2.476500e-01,32.400000,-2.476500e-01,2.080000,
-2.476000e-01,32.800000,-2.476000e-01,2.160000,
-2.475500e-01,32.400000,-2.475500e-01,2.160000,
-2.475000e-01,32.400000,-2.475000e-01,2.160000,
-2.474500e-01,32.400000,-2.474500e-01,2.160000,
-2.474000e-01,32.400000,-2.474000e-01,2.160000,
-2.473500e-01,32.400000,-2.473500e-01,2.160000,
-2.473000e-01,32.400000,-2.473000e-01,2.160000,
-2.472500e-01,32.400000,-2.472500e-01,2.160000,
-2.472000e-01,32.400000,-2.472000e-01,2.160000,
-2.471500e-01,32.800000,-2.471500e-01,2.160000,
-2.471000e-01,32.400000,-2.471000e-01,2.160000,
-2.470500e-01,32.400000,-2.470500e-01,2.160000,
-2.470000e-01,32.400000,-2.470000e-01,2.160000,
-2.469500e-01,32.400000,-2.469500e-01,2.160000,
-2.469000e-01,32.400000,-2.469000e-01,2.080000,
-2.468500e-01,32.400000,-2.468500e-01,2.160000,
-2.468000e-01,32.400000,-2.468000e-01,2.160000,
-2.467500e-01,32.400000,-2.467500e-01,2.160000,
-2.467000e-01,32.400000,-2.467000e-01,2.160000,
-2.466500e-01,32.400000,-2.466500e-01,2.160000,
-2.466000e-01,32.800000,-2.466000e-01,2.160000,
-2.465500e-01,32.400000,-2.465500e-01,2.160000,
-2.465000e-01,32.400000,-2.465000e-01,2.160000,
-2.464500e-01,32.400000,-2.464500e-01,2.160000,
-2.464000e-01,32.400000,-2.464000e-01,2.160000,
-2.463500e-01,32.400000,-2.463500e-01,2.160000,
-2.463000e-01,32.400000,-2.463000e-01,2.160000,
-2.462500e-01,32.400000,-2.462500e-01,2.160000,
-2.462000e-01,32.400000,-2.462000e-01,2.160000,
-2.461500e-01,32.400000,-2.461500e-01,2.160000,
-2.461000e-01,32.400000,-2.461000e-01,2.160000,
-2.460500e-01,32.400000,-2.460500e-01,2.160000,
-2.460000e-01,32.800000,-2.460000e-01,2.160000,
-2.459500e-01,32.400000,-2.459500e-01,2.160000,
-2.459000e-01,32.400000,-2.459000e-01,2.160000,
-2.458500e-01,32.400000,-2.458500e-01,2.160000,
-2.458000e-01,32.400000,-2.458000e-01,2.160000,
-2.457500e-01,32.400000,-2.457500e-01,2.160000,
-2.457000e-01,32.400000,-2.457000e-01,2.160000,
-2.456500e-01,32.400000,-2.456500e-01,2.160000,
-2.456000e-01,32.400000,-2.456000e-01,2.160000,
-2.455500e-01,32.800000,-2.455500e-01,2.160000,
-2.455000e-01,32.400000,-2.455000e-01,2.160000,
-2.454500e-01,32.400000,-2.454500e-01,2.160000,
-2.454000e-01,32.800000,-2.454000e-01,2.160000,
-2.453500e-01,32.400000,-2.453500e-01,2.160000,
-2.453000e-01,32.400000,-2.453000e-01,2.160000,
-2.452500e-01,32.400000,-2.452500e-01,2.160000,
-2.452000e-01,32.400000,-2.452000e-01,2.160000,
-2.451500e-01,32.400000,-2.451500e-01,2.160000,
-2.451000e-01,32.400000,-2.451000e-01,2.160000,
-2.450500e-01,32.400000,-2.450500e-01,2.160000,
-2.450000e-01,32.400000,-2.450000e-01,2.160000,
-2.449500e-01,32.800000,-2.449500e-01,2.160000,
-2.449000e-01,32.400000,-2.449000e-01,2.160000,
-2.448500e-01,32.400000,-2.448500e-01,2.160000,
-2.448000e-01,32.400000,-2.448000e-01,2.160000,
-2.447500e-01,32.400000,-2.447500e-01,2.160000,
-2.447000e-01,32.400000,-2.447000e-01,2.160000,
-2.446500e-01,32.400000,-2.446500e-01,2.160000,
-2.446000e-01,32.400000,-2.446000e-01,2.160000,
-2.445500e-01,32.400000,-2.445500e-01,2.160000,
-2.445000e-01,32.400000,-2.445000e-01,2.160000,
-2.444500e-01,32.400000,-2.444500e-01,2.240000,
-2.444000e-01,32.400000,-2.444000e-01,2.160000,
-2.443500e-01,32.400000,-2.443500e-01,2.160000,
-2.443000e-01,32.400000,-2.443000e-01,2.160000,
-2.442500e-01,32.400000,-2.442500e-01,2.160000,
-2.442000e-01,32.400000,-2.442000e-01,2.160000,
-2.441500e-01,32.400000,-2.441500e-01,2.160000,
-2.441000e-01,32.400000,-2.441000e-01,2.160000,
-2.440500e-01,32.400000,-2.440500e-01,2.080000,
-2.440000e-01,32.400000,-2.440000e-01,2.160000,
-2.439500e-01,32.400000,-2.439500e-01,2.240000,
-2.439000e-01,32.400000,-2.439000e-01,2.160000,
-2.438500e-01,32.400000,-2.438500e-01,2.160000,
-2.438000e-01,32.400000,-2.438000e-01,2.160000,
-2.437500e-01,32.400000,-2.437500e-01,2.160000,
-2.437000e-01,32.400000,-2.437000e-01,2.160000,
-2.436500e-01,32.400000,-2.436500e-01,2.160000,
-2.436000e-01,32.400000,-2.436000e-01,2.160000,
-2.435500e-01,32.000000,-2.435500e-01,2.160000,
-2.435000e-01,32.400000,-2.435000e-01,2.160000,
-2.434500e-01,32.400000,-2.434500e-01,2.160000,
-2.434000e-01,32.400000,-2.434000e-01,2.080000,
-2.433500e-01,32.400000,-2.433500e-01,2.160000,
-2.433000e-01,32.400000,-2.433000e-01,2.160000,
-2.432500e-01,32.400000,-2.432500e-01,2.160000,
-2.432000e-01,32.400000,-2.432000e-01,2.160000,
-2.431500e-01,32.400000,-2.431500e-01,2.160000,
-2.431000e-01,32.400000,-2.431000e-01,2.160000,
-2.430500e-01,32.400000,-2.430500e-01,2.160000,
-2.430000e-01,32.400000,-2.430000e-01,2.160000,
-2.429500e-01,32.400000,-2.429500e-01,2.160000,
-2.429000e-01,32.400000,-2.429000e-01,2.160000,
-2.428500e-01,32.400000,-2.428500e-01,2.160000,
-2.428000e-01,34.000001,-2.428000e-01,2.000000,
-2.427500e-01,32.400000,-2.427500e-01,2.160000,
-2.427000e-01,32.400000,-2.427000e-01,2.160000,
-2.426500e-01,32.000000,-2.426500e-01,2.160000,
-2.426000e-01,32.400000,-2.426000e-01,2.160000,
-2.425500e-01,32.400000,-2.425500e-01,2.160000,
-2.425000e-01,32.400000,-2.425000e-01,2.160000,
-2.424500e-01,32.400000,-2.424500e-01,2.160000,
-2.424000e-01,32.400000,-2.424000e-01,2.160000,
-2.423500e-01,32.400000,-2.423500e-01,2.160000,
-2.423000e-01,32.400000,-2.423000e-01,2.160000,
-2.422500e-01,32.400000,-2.422500e-01,2.160000,
-2.422000e-01,32.400000,-2.422000e-01,2.160000,
-2.421500e-01,32.400000,-2.421500e-01,2.160000,
-2.421000e-01,32.400000,-2.421000e-01,2.160000,
-2.420500e-01,32.400000,-2.420500e-01,2.160000,
-2.420000e-01,32.400000,-2.420000e-01,2.160000,
-2.419500e-01,32.400000,-2.419500e-01,2.160000,
-2.419000e-01,32.000000,-2.419000e-01,2.160000,
-2.418500e-01,32.400000,-2.418500e-01,2.160000,
-2.418000e-01,32.400000,-2.418000e-01,2.160000,
-2.417500e-01,32.000000,-2.417500e-01,2.160000,
-2.417000e-01,32.000000,-2.417000e-01,2.160000,
-2.416500e-01,32.400000,-2.416500e-01,2.160000,
-2.416000e-01,32.400000,-2.416000e-01,2.160000,
-2.415500e-01,32.400000,-2.415500e-01,2.160000,
-2.415000e-01,32.400000,-2.415000e-01,2.160000,
-2.414500e-01,32.400000,-2.414500e-01,2.160000,
-2.414000e-01,32.400000,-2.414000e-01,2.160000,
-2.413500e-01,32.400000,-2.413500e-01,2.160000,
-2.413000e-01,32.400000,-2.413000e-01,2.160000,
-2.412500e-01,32.400000,-2.412500e-01,2.160000,
-2.412000e-01,32.400000,-2.412000e-01,2.160000,
-2.411500e-01,32.000000,-2.411500e-01,2.160000,
-2.411000e-01,32.400000,-2.411000e-01,2.160000,
-2.410500e-01,32.400000,-2.410500e-01,2.160000,
-2.410000e-01,32.400000,-2.410000e-01,2.160000,
-2.409500e-01,32.400000,-2.409500e-01,2.160000,
-2.409000e-01,32.000000,-2.409000e-01,2.160000,
-2.408500e-01,32.400000,-2.408500e-01,2.160000,
-2.408000e-01,32.000000,-2.408000e-01,2.160000,
-2.407500e-01,32.400000,-2.407500e-01,2.160000,
-2.407000e-01,32.400000,-2.407000e-01,2.160000,
-2.406500e-01,32.400000,-2.406500e-01,2.160000,
-2.406000e-01,32.400000,-2.406000e-01,2.160000,
-2.405500e-01,32.400000,-2.405500e-01,2.160000,
-2.405000e-01,32.400000,-2.405000e-01,2.160000,
-2.404500e-01,32.000000,-2.404500e-01,2.080000,
-2.404000e-01,32.400000,-2.404000e-01,2.160000,
-2.403500e-01,32.000000,-2.403500e-01,2.160000,
-2.403000e-01,32.000000,-2.403000e-01,2.000000,
-2.402500e-01,32.000000,-2.402500e-01,2.160000,
-2.402000e-01,32.400000,-2.402000e-01,2.160000,
-2.401500e-01,32.400000,-2.401500e-01,2.160000,
-2.401000e-01,32.400000,-2.401000e-01,2.080000,
-2.400500e-01,32.000000,-2.400500e-01,2.160000,
-2.400000e-01,32.400000,-2.400000e-01,2.160000,
-2.399500e-01,32.000000,-2.399500e-01,2.160000,
-2.399000e-01,32.000000,-2.399000e-01,2.080000,
-2.398500e-01,32.000000,-2.398500e-01,2.160000,
-2.398000e-01,32.400000,-2.398000e-01,2.160000,
-2.397500e-01,32.000000,-2.397500e-01,2.080000,
-2.397000e-01,34.800000,-2.397000e-01,1.920000,
-2.396500e-01,32.000000,-2.396500e-01,2.320000,
-2.396000e-01,32.000000,-2.396000e-01,2.080000,
-2.395500e-01,24.800000,-2.395500e-01,2.080000,
-2.395000e-01,32.400000,-2.395000e-01,2.160000,
-2.394500e-01,32.000000,-2.394500e-01,2.160000,
-2.394000e-01,32.000000,-2.394000e-01,2.080000,
-2.393500e-01,32.000000,-2.393500e-01,2.160000,
-2.393000e-01,32.400000,-2.393000e-01,2.160000,
-2.392500e-01,32.000000,-2.392500e-01,2.160000,
-2.392000e-01,32.000000,-2.392000e-01,2.080000,
-2.391500e-01,31.600001,-2.391500e-01,2.240000,
-2.391000e-01,32.000000,-2.391000e-01,2.080000,
-2.390500e-01,32.000000,-2.390500e-01,2.160000,
-2.390000e-01,32.000000,-2.390000e-01,2.160000,
-2.389500e-01,32.000000,-2.389500e-01,2.160000,
-2.389000e-01,32.000000,-2.389000e-01,2.080000,
-2.388500e-01,32.000000,-2.388500e-01,2.160000,
-2.388000e-01,32.000000,-2.388000e-01,2.080000,
-2.387500e-01,32.000000,-2.387500e-01,2.160000,
-2.387000e-01,32.000000,-2.387000e-01,2.160000,
-2.386500e-01,32.000000,-2.386500e-01,2.160000,
-2.386000e-01,32.000000,-2.386000e-01,2.160000,
-2.385500e-01,32.000000,-2.385500e-01,2.160000,
-2.385000e-01,32.000000,-2.385000e-01,2.080000,
-2.384500e-01,32.000000,-2.384500e-01,2.160000,
-2.384000e-01,32.000000,-2.384000e-01,2.080000,
-2.383500e-01,32.000000,-2.383500e-01,2.160000,
-2.383000e-01,32.000000,-2.383000e-01,2.080000,
-2.382500e-01,32.000000,-2.382500e-01,2.160000,
-2.382000e-01,32.000000,-2.382000e-01,2.080000,
-2.381500e-01,32.000000,-2.381500e-01,2.160000,
-2.381000e-01,32.000000,-2.381000e-01,2.160000,
-2.380500e-01,32.000000,-2.380500e-01,2.160000,
-2.380000e-01,32.000000,-2.380000e-01,2.000000,
-2.379500e-01,32.000000,-2.379500e-01,2.080000,
-2.379000e-01,32.000000,-2.379000e-01,2.160000,
-2.378500e-01,32.000000,-2.378500e-01,2.160000,
-2.378000e-01,32.000000,-2.378000e-01,2.160000,
-2.377500e-01,32.000000,-2.377500e-01,2.160000,
-2.377000e-01,32.000000,-2.377000e-01,2.160000,
-2.376500e-01,32.000000,-2.376500e-01,2.160000,
-2.376000e-01,32.000000,-2.376000e-01,2.160000,
-2.375500e-01,32.000000,-2.375500e-01,2.160000,
-2.375000e-01,32.000000,-2.375000e-01,2.080000,
-2.374500e-01,32.000000,-2.374500e-01,2.160000,
-2.374000e-01,32.000000,-2.374000e-01,2.080000,
-2.373500e-01,32.000000,-2.373500e-01,2.080000,
-2.373000e-01,32.000000,-2.373000e-01,2.160000,
-2.372500e-01,32.000000,-2.372500e-01,2.160000,
-2.372000e-01,32.000000,-2.372000e-01,2.160000,
-2.371500e-01,32.000000,-2.371500e-01,2.160000,
-2.371000e-01,32.000000,-2.371000e-01,2.160000,
-2.370500e-01,32.000000,-2.370500e-01,2.160000,
-2.370000e-01,32.000000,-2.370000e-01,2.160000,
-2.369500e-01,32.000000,-2.369500e-01,2.160000,
-2.369000e-01,32.000000,-2.369000e-01,2.160000,
-2.368500e-01,32.000000,-2.368500e-01,2.160000,
-2.368000e-01,32.000000,-2.368000e-01,2.160000,
-2.367500e-01,32.000000,-2.367500e-01,2.160000,
-2.367000e-01,32.000000,-2.367000e-01,2.160000,
-2.366500e-01,32.000000,-2.366500e-01,2.160000,
-2.366000e-01,32.000000,-2.366000e-01,2.160000,
-2.365500e-01,32.000000,-2.365500e-01,2.160000,
-2.365000e-01,32.000000,-2.365000e-01,2.160000,
-2.364500e-01,32.000000,-2.364500e-01,2.160000,
-2.364000e-01,32.000000,-2.364000e-01,2.160000,
-2.363500e-01,32.000000,-2.363500e-01,2.080000,
-2.363000e-01,32.000000,-2.363000e-01,2.160000,
-2.362500e-01,32.000000,-2.362500e-01,2.160000,
-2.362000e-01,32.000000,-2.362000e-01,2.160000,
-2.361500e-01,32.000000,-2.361500e-01,2.160000,
-2.361000e-01,32.000000,-2.361000e-01,2.080000,
-2.360500e-01,32.000000,-2.360500e-01,2.160000,
-2.360000e-01,32.000000,-2.360000e-01,2.160000,
-2.359500e-01,32.000000,-2.359500e-01,2.160000,
-2.359000e-01,32.000000,-2.359000e-01,2.160000,
-2.358500e-01,32.400000,-2.358500e-01,2.160000,
-2.358000e-01,32.000000,-2.358000e-01,2.080000,
-2.357500e-01,32.000000,-2.357500e-01,2.160000,
-2.357000e-01,32.000000,-2.357000e-01,2.160000,
-2.356500e-01,32.400000,-2.356500e-01,2.160000,
-2.356000e-01,32.000000,-2.356000e-01,2.160000,
-2.355500e-01,32.400000,-2.355500e-01,2.160000,
-2.355000e-01,32.000000,-2.355000e-01,2.160000,
-2.354500e-01,32.000000,-2.354500e-01,2.160000,
-2.354000e-01,32.000000,-2.354000e-01,2.160000,
-2.353500e-01,32.000000,-2.353500e-01,2.160000,
-2.353000e-01,32.000000,-2.353000e-01,2.160000,
-2.352500e-01,32.400000,-2.352500e-01,2.160000,
-2.352000e-01,32.000000,-2.352000e-01,2.160000,
-2.351500e-01,32.000000,-2.351500e-01,2.160000,
-2.351000e-01,32.400000,-2.351000e-01,2.080000,
-2.350500e-01,32.000000,-2.350500e-01,2.160000,
-2.350000e-01,32.000000,-2.350000e-01,2.160000,
-2.349500e-01,32.000000,-2.349500e-01,2.160000,
-2.349000e-01,32.400000,-2.349000e-01,2.160000,
-2.348500e-01,32.400000,-2.348500e-01,2.160000,
-2.348000e-01,32.000000,-2.348000e-01,2.160000,
-2.347500e-01,32.000000,-2.347500e-01,2.080000,
-2.347000e-01,32.000000,-2.347000e-01,2.160000,
-2.346500e-01,32.400000,-2.346500e-01,2.160000,
-2.346000e-01,32.000000,-2.346000e-01,2.160000,
-2.345500e-01,32.400000,-2.345500e-01,2.160000,
-2.345000e-01,32.000000,-2.345000e-01,2.160000,
-2.344500e-01,32.000000,-2.344500e-01,2.080000,
-2.344000e-01,32.000000,-2.344000e-01,2.160000,
-2.343500e-01,32.000000,-2.343500e-01,2.160000,
-2.343000e-01,32.400000,-2.343000e-01,2.160000,
-2.342500e-01,32.400000,-2.342500e-01,2.160000,
-2.342000e-01,32.000000,-2.342000e-01,2.080000,
-2.341500e-01,32.400000,-2.341500e-01,2.080000,
-2.341000e-01,32.000000,-2.341000e-01,2.160000,
-2.340500e-01,32.400000,-2.340500e-01,2.160000,
-2.340000e-01,32.000000,-2.340000e-01,2.160000,
-2.339500e-01,32.400000,-2.339500e-01,2.160000,
-2.339000e-01,32.000000,-2.339000e-01,2.080000,
-2.338500e-01,32.400000,-2.338500e-01,2.160000,
-2.338000e-01,32.400000,-2.338000e-01,2.160000,
-2.337500e-01,32.400000,-2.337500e-01,2.160000,
-2.337000e-01,32.000000,-2.337000e-01,2.160000,
-2.336500e-01,32.400000,-2.336500e-01,2.160000,
-2.336000e-01,32.000000,-2.336000e-01,2.160000,
-2.335500e-01,32.400000,-2.335500e-01,2.160000,
-2.335000e-01,32.400000,-2.335000e-01,2.160000,
-2.334500e-01,32.400000,-2.334500e-01,2.160000,
-2.334000e-01,32.000000,-2.334000e-01,2.160000,
-2.333500e-01,32.400000,-2.333500e-01,2.160000,
-2.333000e-01,32.000000,-2.333000e-01,2.160000,
-2.332500e-01,32.400000,-2.332500e-01,2.160000,
-2.332000e-01,32.000000,-2.332000e-01,2.160000,
-2.331500e-01,32.400000,-2.331500e-01,2.160000,
-2.331000e-01,32.400000,-2.331000e-01,2.160000,
-2.330500e-01,32.400000,-2.330500e-01,2.160000,
-2.330000e-01,32.400000,-2.330000e-01,2.160000,
-2.329500e-01,32.400000,-2.329500e-01,2.160000,
-2.329000e-01,32.000000,-2.329000e-01,2.160000,
-2.328500e-01,32.400000,-2.328500e-01,2.160000,
-2.328000e-01,32.400000,-2.328000e-01,2.080000,
-2.327500e-01,32.400000,-2.327500e-01,2.160000,
-2.327000e-01,32.000000,-2.327000e-01,2.160000,
-2.326500e-01,32.400000,-2.326500e-01,2.160000,
-2.326000e-01,32.000000,-2.326000e-01,2.160000,
-2.325500e-01,32.400000,-2.325500e-01,2.080000,
-2.325000e-01,33.599999,-2.325000e-01,2.400000,
-2.324500e-01,32.400000,-2.324500e-01,2.160000,
-2.324000e-01,32.000000,-2.324000e-01,2.160000,
-2.323500e-01,32.400000,-2.323500e-01,2.160000,
-2.323000e-01,32.400000,-2.323000e-01,2.160000,
-2.322500e-01,32.400000,-2.322500e-01,2.160000,
-2.322000e-01,32.000000,-2.322000e-01,2.160000,
-2.321500e-01,32.400000,-2.321500e-01,2.160000,
-2.321000e-01,32.400000,-2.321000e-01,2.160000,
-2.320500e-01,32.400000,-2.320500e-01,2.160000,
-2.320000e-01,32.400000,-2.320000e-01,2.160000,
-2.319500e-01,32.400000,-2.319500e-01,2.160000,
-2.319000e-01,32.400000,-2.319000e-01,2.160000,
-2.318500e-01,32.400000,-2.318500e-01,2.160000,
-2.318000e-01,32.000000,-2.318000e-01,2.160000,
-2.317500e-01,32.400000,-2.317500e-01,2.160000,
-2.317000e-01,32.400000,-2.317000e-01,2.160000,
-2.316500e-01,32.400000,-2.316500e-01,2.160000,
-2.316000e-01,32.400000,-2.316000e-01,2.160000,
-2.315500e-01,32.400000,-2.315500e-01,2.160000,
-2.315000e-01,32.400000,-2.315000e-01,2.160000,
-2.314500e-01,32.400000,-2.314500e-01,2.160000,
-2.314000e-01,32.400000,-2.314000e-01,2.080000,
-2.313500e-01,32.400000,-2.313500e-01,2.160000,
-2.313000e-01,32.000000,-2.313000e-01,2.320000,
-2.312500e-01,32.800000,-2.312500e-01,2.160000,
-2.312000e-01,32.800000,-2.312000e-01,2.240000,
-2.311500e-01,32.400000,-2.311500e-01,2.160000,
-2.311000e-01,32.400000,-2.311000e-01,2.160000,
-2.310500e-01,32.400000,-2.310500e-01,2.160000,
-2.310000e-01,32.400000,-2.310000e-01,2.160000,
-2.309500e-01,32.400000,-2.309500e-01,2.160000,
-2.309000e-01,32.400000,-2.309000e-01,2.240000,
-2.308500e-01,32.400000,-2.308500e-01,2.160000,
-2.308000e-01,32.400000,-2.308000e-01,2.160000,
-2.307500e-01,32.400000,-2.307500e-01,2.080000,
-2.307000e-01,32.400000,-2.307000e-01,2.080000,
-2.306500e-01,32.400000,-2.306500e-01,2.160000,
-2.306000e-01,32.400000,-2.306000e-01,2.160000,
-2.305500e-01,32.400000,-2.305500e-01,2.160000,
-2.305000e-01,32.400000,-2.305000e-01,2.160000,
-2.304500e-01,32.400000,-2.304500e-01,2.160000,
-2.304000e-01,32.400000,-2.304000e-01,2.160000,
